{
  "OBSTRUCTION": {
    "hist_based-20-35": {
      "window_size": 20,
      "percentage": 35
    },
    "hist_based-20-40": {
      "window_size": 20,
      "percentage": 40
    },
    "hist_based-20-45": {
      "window_size": 20,
      "percentage": 45
    },
    "hist_based-20-50": {
      "window_size": 20,
      "percentage": 50
    },
    "hist_based-20-55": {
      "window_size": 20,
      "percentage": 55
    },
    "hist_based-20-65": {
      "window_size": 20,
      "percentage": 65
    },
    "hist_based-20-70": {
      "window_size": 20,
      "percentage": 65
    },
    "hist_based-25-35": {
      "window_size": 25,
      "percentage": 35
    },
    "hist_based-25-40": {
      "window_size": 25,
      "percentage": 40
    },
    "hist_based-25-45": {
      "window_size": 25,
      "percentage": 45
    },
    "hist_based-25-50": {
      "window_size": 25,
      "percentage": 50
    },
    "hist_based-25-55": {
      "window_size": 25,
      "percentage": 55
    },
    "hist_based-25-65": {
      "window_size": 25,
      "percentage": 65
    },
    "hist_based-25-70": {
      "window_size": 25,
      "percentage": 65
    }
  }
}