{
  "DEFOCUS": {
    "laplacian-30": {
      "threshold": 30,
      "resize_to": {
        "weight": 500,
        "height": 500
      }
    },
    "laplacian-40": {
      "threshold": 40,
      "resize_to": {
        "weight": 500,
        "height": 500
      }
    },
    "laplacian-50": {
      "threshold": 50,
      "resize_to": {
        "weight": 500,
        "height": 500
      }
    },
    "laplacian-60": {
      "threshold": 60,
      "resize_to": {
        "weight": 500,
        "height": 500
      }
    },
    "laplacian-70": {
      "threshold": 70,
      "resize_to": {
        "weight": 500,
        "height": 500
      }
    },
    "laplacian-80": {
      "threshold": 80,
      "resize_to": {
        "weight": 500,
        "height": 500
      }
    },
    "laplacian-90": {
      "threshold": 90,
      "resize_to": {
        "weight": 500,
        "height": 500
      }
    },
    "laplacian-100": {
      "threshold": 100,
      "resize_to": {
        "weight": 500,
        "height": 500
      }
    },
    "laplacian-110": {
      "threshold": 110,
      "resize_to": {
        "weight": 500,
        "height": 500
      }
    },
    "laplacian-120": {
      "threshold": 120,
      "resize_to": {
        "weight": 500,
        "height": 500
      }
    },
    "laplacian-130": {
      "threshold": 130,
      "resize_to": {
        "weight": 500,
        "height": 500
      }
    },
    "laplacian-140": {
      "threshold": 140,
      "resize_to": {
        "weight": 500,
        "height": 500
      }
    },
    "laplacian-150": {
      "threshold": 150,
      "resize_to": {
        "weight": 500,
        "height": 500
      }
    },
    "laplacian-160": {
      "threshold": 160,
      "resize_to": {
        "weight": 500,
        "height": 500
      }
    },
    "laplacian-170": {
      "threshold": 170,
      "resize_to": {
        "weight": 500,
        "height": 500
      }
    },
    "laplacian-180": {
      "threshold": 180,
      "resize_to": {
        "weight": 500,
        "height": 500
      }
    },
    "laplacian-190": {
      "threshold": 190,
      "resize_to": {
        "weight": 500,
        "height": 500
      }
    },
    "laplacian-200": {
      "threshold": 200,
      "resize_to": {
        "weight": 500,
        "height": 500
      }
    },
    "laplacian-210": {
      "threshold": 210,
      "resize_to": {
        "weight": 500,
        "height": 500
      }
    },
    "laplacian-220": {
      "threshold": 220,
      "resize_to": {
        "weight": 500,
        "height": 500
      }
    },
    "laplacian-230": {
      "threshold": 230,
      "resize_to": {
        "weight": 500,
        "height": 500
      }
    },
    "laplacian-300": {
      "threshold": 300,
      "resize_to": {
        "weight": 500,
        "height": 500
      }
    },
    "laplacian-350": {
      "threshold": 350,
      "resize_to": {
        "weight": 500,
        "height": 500
      }
    },
    "laplacian-400": {
      "threshold": 400,
      "resize_to": {
        "weight": 500,
        "height": 500
      }
    },
    "laplacian-500": {
      "threshold": 500,
      "resize_to": {
        "weight": 500,
        "height": 500
      }
    },
    "laplacian-600": {
      "threshold": 500,
      "resize_to": {
        "weight": 500,
        "height": 500
      }
    }
  }
}