{
  "DEFOCUS": {
    "laplacian": {
      "threshold": 110,
      "resize_to": {
        "weight": 500,
        "height": 500
      }
    }
  },
  "OVEREXPOSURE": {
    "CIELab": {
      "threshold": 98,
      "percentages_threshold": 4,
      "resize_to": {
        "weight": 50,
        "height": 50
      }
    },
    "YUV": {
      "threshold": 230,
      "percentages_threshold": 14,
      "resize_to": {
        "weight": 200,
        "height": 200
      }
    },
    "map_based": {
      "threshold": 0.5,
      "percentages_threshold": 60,
      "resize_to": {
        "weight": 200,
        "height": 200
      }
    }
  },
  "OBSTRUCTION": {
    "hist_based": {
      "window_size": 25,
      "percentage": 60
    }
  }
}