./overexposure/overexposure2.jpg
./overexposure/20170205T151128.734515.jpg
./overexposure/20170914T154314.968721.jpg
./overexposure/overexposure1.jpg
./overexposure/20170816T152614.005231.jpg
./overexposure/20170914T154333.531942.jpg
./overexposure/20170914T154316.168972.jpg
./overexposure/20170914T154315.673466.jpg
./overexposure/20170914T154314.768671.jpg
./overexposure/20170209T161547.972567r.jpg
